…
suppressWarnings(plot(select(subregions, geometry)))
```

<img src="man/figures/README-subregions-1.png" width="672" />

*Find all the incidents by pirates this year*

``` r
asam <- read_asam()

asam
## # A tibble: 7,843 x 9
##    reference date       latitude longitude navArea subreg hostility      victim    description                          
##    <chr>     <date>        <dbl>     <dbl> <chr>   <chr>  <chr>          <chr>     <chr>                                
##  1 2019-73   2019-09-30     1.04    104.   XI      71     Five Armed ro… Bulk Car… , SINGAPORE STRAITS. DECK CREW ON RO…
##  2 2019-72   2019-09-28     5.33    120.   XI      92     Two High-spee… Bulk Car… AROUND 12NM NW OF TAWI-TAWI ISLAND, …
##  3 2019-75   2019-09-23     6.28      3.23 II      57     <NA>           <NA>      On September 23rd a duty watchman on…
##  4 2019-74   2019-09-23     5.46    119.   XI      72     Seven people … two fish… TWO FISHING BOATS SAILED TOWARDS TAM…
##  5 2019-76   2019-09-16     9.42    -13.7  II      51     Four armed ro… Tanker    On September 16th four robbers armed…
##  6 2019-71   2019-07-21     2.92    105.   XI      71     PIRATES        BULK CAR… INDONESIA: On 21 July, seven pirates…
##  7 2019-70   2019-07-21     8.47    -13.5  II      51     ROBBERS        CONTAINE… SIERRA LEONE: On 21 July, five robbe…
##  8 2019-68   2019-07-16     1.17    104.   XI      71     ROBBERS        TUG       INDONESIA: On 16 July, robbers board…
##  9 2019-69   2019-07-13     9.59    -79.5  IV      26     PIRATES        PLEASURE… PANAMA: On 13 July, a monohull with …
## 10 2019-67   2019-07-13     2.97      4.67 II      57     PIRATES        CARGO SH… NIGERIA: On 13 July, pirates boarded…
## # … with 7,833 more rows

filter(asam, grepl("pirate", hostility, ignore.case=TRUE), lubridate::year(date) == lubridate::year(Sys.Date())) 
## # A tibble: 31 x 9
##    reference date       latitude longitude navArea subreg hostility victim     description                              
##    <chr>     <date>        <dbl>     <dbl> <chr>   <chr>  <chr>     <chr>      <chr>                                    
##  1 2019-71   2019-07-21   2.92      105.   XI      71     PIRATES   BULK CARR… INDONESIA: On 21 July, seven pirates arm…
##  2 2019-69   2019-07-13   9.59      -79.5  IV      26     PIRATES   PLEASURE … PANAMA: On 13 July, a monohull with two …
##  3 2019-67   2019-07-13   2.97        4.67 II      57     PIRATES   CARGO SHIP NIGERIA: On 13 July, pirates boarded the…
##  4 2019-65   2019-07-01  12.9        43.2  IX      62     PIRATES   MERCHANT … RED SEA: On 1 July, a merchant vessel un…
##  5 2019-57   2019-06-03   4.23        7.1  II      57     PIRATES   SPEEDBOATS NIGERIA: On 3 June, five Port Harcourt-b…
##  6 2019-56   2019-05-31   0.0500    -51.0  V       24     PIRATES   BULK CARR… BRAZIL: On 31 May, six persons armed wit…
##  7 2019-46   2019-05-12   6.00        1.27 II      57     PIRATES   CHEMICAL … TOGO: On 12 May, armed persons boarded a…
##  8 2019-53   2019-05-05   3.          7.83 II      57     PIRATES   SEMI-SUB … EQUATORIAL GUINEA: On 5 May, the semi-su…
##  9 2019-52   2019-05-05   3.07        7.98 II      57     PIRATES   TUG BOAT   EQUATORIAL GUINEA: On 5 May, pirates hij…
## 10 2019-40   2019-04-24  -0.483      48.6  VIII    61     Pirates   Multiple … INDIAN OCEAN: On 21 April, fishing vesse…
## # … with 21 more rows
```
…
